module example.com/demo

go 1.16

require (
	golang.org/x/net v0.0.0-20210614182718-04defd469f4e // indirect
	golang.org/x/sys v0.0.0-20210630005230-0f9fa26af87c // indirect
	google.golang.org/genproto v0.0.0-20210713002101-d411969a0d9a // indirect
	google.golang.org/grpc v1.39.0
	google.golang.org/protobuf v1.27.1
)
